Dictionary methods in R
…
Sentiments

These sentiment lexicons are from AFINN from Finn Arup Nielson, Bing from Bing Liu and collaborators, and NRC from Saif Mohammad and Peter Turney.

NRC lexicons, and the Bing lexicons are measured using categorical variables and the AFINN lexicons are based on a -5 to 5 scale.

These lexicons are validated by either crowdsourcing or the authors or both of them. Basically, this is a case of a dictionary method in which a dictionary is about sentiments.

# example
sentiments %>%
  group_by(sentiment) %>%
  filter(sentiment == "trust")

## # A tibble: 1,231 x 4
## # Groups:   sentiment [1]
##    word           sentiment lexicon score
##    <chr>          <chr>     <chr>   <int>
##  1 abacus         trust     nrc        NA
##  2 abbot          trust     nrc        NA
##  3 absolution     trust     nrc        NA
##  4 abundance      trust     nrc        NA
##  5 academic       trust     nrc        NA
##  6 accolade       trust     nrc        NA
##  7 accompaniment  trust     nrc        NA
##  8 accord         trust     nrc        NA
##  9 account        trust     nrc        NA
## 10 accountability trust     nrc        NA
## # ... with 1,221 more rows

# call a sentiment lexicon 
get_sentiments("nrc")

## # A tibble: 13,901 x 2
##    word        sentiment
##    <chr>       <chr>    
##  1 abacus      trust    
##  2 abandon     fear     
##  3 abandon     negative 
##  4 abandon     sadness  
##  5 abandoned   anger    
##  6 abandoned   fear     
##  7 abandoned   negative 
##  8 abandoned   sadness  
##  9 abandonment anger    
## 10 abandonment fear     
## # ... with 13,891 more rows
…
Count

Whats going on here? Lets count most frequent words associated with positive and negative sentiments using the Bing lexicons.

## Bing
inaug %>%
  filter(Year > 1945) %>%
  unnest_tokens(word, text) %>%
  inner_join(get_sentiments("bing")) %>%
  count(word, sentiment, sort = TRUE)

## Joining, by = "word"

## # A tibble: 914 x 3
##    word    sentiment     n
##    <chr>   <chr>     <int>
##  1 freedom positive    121
##  2 peace   positive     97
##  3 free    positive     79
##  4 great   positive     77
##  5 work    positive     76
##  6 faith   positive     47
##  7 liberty positive     45
##  8 good    positive     38
##  9 promise positive     34
## 10 right   positive     34
## # ... with 904 more rows
…
